{ "compressionlevel":-1,
 "editorsettings":
    {
     "export":
        {
         "target":"."
        }
    },
 "height":28,
 "infinite":false,
 "layers":[
        {
         "data":[1, 1, 4, 1, 1, 4, 1, 1, 4, 1, 1, 202, 206, 206, 206, 206, 206, 206, 206, 206, 206, 206, 206, 206, 206, 188, 4, 1, 1, 4, 1, 1, 4, 1, 1, 4, 1, 1, 4, 1, 187, 67, 115, 106, 111, 104, 1, 1, 251, 1, 187, 187, 177, 1, 1, 1, 1, 1, 1, 1, 1, 7, 1, 1, 1, 187, 251, 1, 1, 251, 1, 1, 251, 1, 1, 251, 1, 1, 251, 1, 187, 85, 115, 102, 98, 116, 118, 115, 102, 116, 187, 187, 178, 255, 1, 7, 177, 1, 1, 255, 179, 9, 177, 177, 177, 187, 251, 1, 1, 251, 1, 1, 251, 1, 1, 251, 1, 1, 251, 1, 187, 105, 102, 115, 102, 251, 1, 1, 251, 1, 187, 187, 179, 178, 10, 179, 10, 7, 1, 255, 179, 9, 9, 177, 178, 187, 251, 1, 1, 251, 1, 1, 251, 1, 1, 251, 1, 1, 251, 1, 187, 84, 98, 122, 1, 84, 100, 112, 115, 102, 187, 187, 179, 255, 179, 179, 179, 178, 178, 255, 179, 255, 9, 177, 178, 187, 251, 1, 1, 251, 1, 1, 251, 1, 1, 251, 1, 1, 251, 1, 212, 197, 197, 197, 197, 197, 197, 197, 197, 197, 190, 187, 179, 178, 10, 179, 10, 178, 255, 179, 179, 255, 177, 177, 178, 187, 251, 1, 1, 251, 1, 1, 251, 1, 1, 251, 1, 1, 251, 1, 1, 1, 251, 1, 1, 251, 1, 1, 251, 1, 1, 201, 206, 206, 206, 206, 206, 206, 206, 206, 206, 206, 206, 206, 206, 189, 251, 1, 1, 251, 1, 1, 251, 1, 1, 221, 221, 221, 221, 221, 1, 1, 221, 221, 221, 221, 221, 221, 221, 1, 224, 224, 224, 224, 224, 224, 224, 224, 224, 224, 224, 224, 224, 224, 224, 224, 224, 1, 1, 251, 1, 1, 251, 221, 221, 221, 221, 221, 251, 1, 1, 1, 223, 1, 1, 251, 1, 1, 222, 1, 1, 251, 1, 1, 251, 1, 1, 251, 1, 1, 251, 1, 1, 251, 1, 1, 251, 1, 1, 251, 1, 221, 221, 221, 221, 221, 1, 1, 251, 1, 1, 197, 197, 197, 197, 197, 197, 197, 197, 197, 197, 197, 197, 197, 197, 197, 197, 197, 197, 197, 197, 197, 197, 197, 197, 197, 197, 197, 197, 197, 197, 197, 197, 197, 197, 197, 197, 197, 197, 1, 66, 66, 1, 1, 1, 1, 1, 1, 1, 1, 1, 1, 1, 1, 1, 66, 66, 66, 66, 66, 66, 66, 1, 1, 1, 1, 66, 66, 66, 66, 66, 66, 1, 1, 1, 1, 1, 1, 1, 1, 1, 66, 66, 66, 66, 66, 66, 66, 66, 66, 66, 66, 66, 1, 1, 1, 1, 1, 1, 1, 1, 1, 1, 1, 1, 1, 1, 1, 1, 1, 1, 1, 1, 1, 1, 1, 1, 1, 1, 1, 66, 66, 66, 66, 1, 1, 1, 1, 1, 1, 1, 1, 1, 1, 1, 1, 1, 1, 1, 1, 1, 1, 1, 1, 1, 1, 66, 66, 66, 66, 66, 1, 1, 1, 1, 1, 1, 1, 1, 1, 1, 66, 66, 1, 1, 1, 1, 1, 1, 1, 1, 1, 1, 1, 1, 1, 1, 1, 1, 1, 1, 1, 1, 1, 1, 1, 1, 1, 1, 1, 66, 66, 1, 1, 1, 1, 1, 1, 1, 1, 1, 1, 1, 66, 66, 1, 1, 1, 1, 1, 1, 1, 1, 1, 1, 1, 1, 1, 1, 1, 1, 66, 66, 66, 66, 1, 1, 1, 1, 1, 1, 1, 1, 1, 1, 1, 1, 1, 1, 1, 66, 66, 66, 66, 1, 1, 1, 1, 1, 1, 1, 1, 1, 1, 66, 66, 1, 1, 1, 1, 1, 1, 1, 1, 66, 1, 1, 1, 1, 1, 1, 1, 1, 1, 1, 1, 1, 1, 1, 1, 66, 66, 66, 66, 66, 1, 1, 1, 1, 1, 1, 1, 1, 1, 66, 1, 66, 66, 1, 1, 1, 1, 1, 1, 1, 1, 1, 1, 1, 1, 1, 1, 1, 1, 1, 1, 1, 1, 1, 1, 1, 1, 1, 1, 66, 66, 66, 1, 1, 1, 1, 1, 1, 1, 1, 1, 1, 1, 1, 1, 1, 1, 1, 1, 1, 1, 1, 1, 1, 1, 1, 1, 1, 1, 1, 1, 1, 1, 1, 1, 1, 66, 66, 1, 1, 1, 66, 66, 66, 1, 1, 1, 1, 1, 1, 1, 1, 66, 66, 1, 1, 1, 1, 1, 1, 1, 1, 66, 66, 66, 66, 66, 66, 1, 1, 1, 1, 1, 1, 1, 1, 1, 66, 66, 66, 66, 1, 1, 1, 1, 1, 1, 1, 1, 1, 1, 1, 1, 1, 66, 66, 66, 66, 66, 1, 1, 1, 1, 1, 1, 1, 1, 1, 1, 1, 1, 1, 1, 1, 1, 1, 1, 1, 1, 1, 66, 1, 1, 1, 1, 1, 1, 1, 1, 1, 1, 1, 1, 1, 1, 1, 1, 1, 1, 1, 1, 1, 1, 1, 1, 1, 1, 1, 1, 1, 1, 1, 1, 1, 1, 1, 66, 66, 66, 66, 1, 1, 66, 66, 66, 1, 1, 1, 1, 1, 1, 1, 1, 66, 66, 66, 66, 66, 66, 66, 66, 66, 66, 1, 1, 1, 1, 1, 1, 1, 1, 1, 1, 1, 1, 66, 66, 66, 66, 1, 1, 66, 66, 1, 1, 1, 1, 1, 1, 1, 1, 1, 1, 1, 1, 1, 1, 1, 1, 1, 1, 1, 1, 1, 1, 1, 1, 1, 1, 1, 1, 1, 1, 1, 1, 66, 66, 66, 1, 66, 66, 66, 66, 1, 1, 1, 1, 1, 1, 1, 1, 1, 1, 1, 1, 1, 1, 1, 1, 1, 1, 1, 1, 1, 1, 1, 1, 1, 1, 1, 1, 1, 1, 1, 1, 1, 197, 197, 197, 197, 197, 197, 197, 197, 197, 197, 197, 197, 197, 197, 197, 197, 197, 197, 197, 197, 197, 197, 197, 197, 197, 197, 197, 197, 197, 197, 197, 197, 197, 197, 197, 197, 197, 197, 1, 1, 16, 241, 16, 241, 16, 241, 16, 241, 16, 241, 16, 241, 16, 241, 16, 241, 16, 241, 16, 241, 16, 241, 16, 241, 16, 241, 16, 241, 16, 241, 16, 241, 16, 241, 16, 241, 16, 241, 1, 1, 241, 16, 241, 16, 241, 16, 241, 16, 241, 16, 241, 16, 241, 16, 241, 16, 241, 16, 241, 16, 241, 16, 241, 16, 241, 16, 241, 16, 241, 16, 241, 16, 241, 16, 241, 16, 241, 16, 1, 1, 1, 1, 1, 1, 1, 1, 1, 1, 1, 1, 1, 1, 1, 1, 1, 1, 1, 1, 1, 1, 1, 1, 1, 1, 1, 1, 1, 1, 1, 1, 1, 1, 1, 1, 1, 1, 1, 1, 1],
         "height":28,
         "id":1,
         "name":"Tile Layer 1",
         "opacity":1,
         "type":"tilelayer",
         "visible":true,
         "width":40,
         "x":0,
         "y":0
        }],
 "nextlayerid":2,
 "nextobjectid":1,
 "orientation":"orthogonal",
 "renderorder":"right-down",
 "tiledversion":"1.4.3",
 "tileheight":8,
 "tilesets":[
        {
         "firstgid":1,
         "source":"vga.tsx"
        }],
 "tilewidth":8,
 "type":"map",
 "version":1.4,
 "width":40
}