{ "compressionlevel":-1,
 "editorsettings":
    {
     "export":
        {
         "target":"."
        }
    },
 "height":28,
 "infinite":false,
 "layers":[
        {
         "data":[1, 1, 7, 1, 1, 1, 1, 1, 1, 1, 1, 1, 1, 1, 1, 1, 1, 1, 1, 1, 1, 1, 1, 1, 1, 7, 1, 7, 1, 1, 1, 1, 1, 1, 1, 1, 1, 1, 1, 1, 1, 177, 255, 1, 1, 7, 1, 1, 1, 1, 1, 1, 177, 1, 1, 1, 1, 1, 1, 1, 1, 7, 1, 1, 1, 179, 179, 179, 1, 1, 1, 7, 1, 1, 1, 1, 1, 7, 1, 1, 1, 177, 255, 177, 178, 255, 178, 1, 1, 177, 1, 178, 178, 255, 1, 7, 177, 1, 1, 255, 179, 9, 177, 177, 177, 10, 179, 179, 177, 178, 179, 179, 179, 1, 1, 7, 177, 177, 1, 7, 178, 177, 255, 177, 178, 255, 178, 7, 177, 177, 179, 179, 179, 178, 10, 179, 10, 7, 1, 255, 179, 9, 9, 177, 178, 179, 179, 10, 177, 178, 255, 179, 255, 177, 1, 178, 177, 177, 255, 178, 255, 178, 177, 177, 178, 255, 178, 220, 177, 177, 179, 10, 179, 255, 179, 179, 179, 178, 178, 255, 179, 255, 9, 177, 178, 10, 179, 179, 177, 178, 255, 179, 255, 177, 255, 179, 255, 177, 255, 178, 255, 179, 179, 179, 179, 255, 178, 220, 177, 178, 179, 10, 179, 178, 10, 179, 10, 178, 255, 179, 179, 255, 177, 177, 178, 179, 179, 10, 177, 177, 255, 179, 255, 177, 255, 179, 255, 177, 178, 178, 255, 179, 10, 179, 10, 178, 178, 220, 177, 178, 179, 10, 179, 255, 179, 179, 179, 178, 255, 179, 179, 255, 177, 177, 178, 10, 179, 179, 177, 177, 179, 255, 179, 177, 255, 179, 255, 177, 177, 178, 178, 179, 10, 179, 10, 178, 178, 220, 177, 178, 179, 10, 179, 178, 10, 179, 10, 179, 255, 179, 179, 9, 9, 177, 178, 179, 179, 10, 177, 177, 179, 255, 179, 177, 255, 179, 255, 179, 255, 179, 178, 179, 179, 179, 179, 178, 178, 220, 177, 178, 179, 179, 179, 255, 179, 179, 179, 179, 178, 179, 179, 9, 9, 177, 178, 179, 179, 179, 177, 177, 179, 255, 179, 177, 255, 179, 255, 179, 255, 179, 1, 197, 197, 197, 197, 197, 197, 197, 197, 197, 197, 197, 197, 197, 197, 197, 197, 197, 197, 197, 197, 197, 197, 197, 197, 197, 197, 197, 197, 197, 197, 197, 197, 197, 197, 197, 197, 197, 197, 1, 66, 66, 1, 1, 1, 1, 1, 1, 1, 1, 1, 1, 1, 1, 1, 66, 66, 66, 66, 66, 66, 66, 1, 1, 1, 1, 66, 66, 66, 66, 66, 66, 1, 1, 1, 1, 1, 1, 1, 1, 1, 66, 66, 66, 66, 66, 66, 66, 66, 66, 66, 66, 66, 1, 1, 1, 1, 1, 1, 1, 1, 1, 1, 1, 1, 1, 1, 1, 1, 1, 1, 1, 1, 1, 1, 1, 1, 1, 1, 1, 66, 66, 66, 66, 1, 1, 1, 1, 1, 1, 1, 1, 1, 1, 1, 1, 1, 1, 1, 1, 1, 1, 1, 1, 1, 1, 66, 66, 66, 66, 66, 1, 1, 1, 1, 1, 1, 1, 1, 1, 1, 66, 66, 1, 1, 1, 1, 1, 1, 1, 1, 1, 1, 1, 1, 1, 1, 1, 1, 1, 1, 1, 1, 1, 1, 1, 1, 1, 1, 1, 66, 66, 1, 1, 1, 1, 1, 1, 1, 1, 1, 1, 1, 66, 66, 1, 1, 1, 1, 1, 1, 1, 1, 1, 1, 1, 1, 1, 1, 1, 1, 66, 66, 66, 66, 1, 1, 1, 1, 1, 1, 1, 1, 1, 1, 1, 1, 1, 1, 1, 66, 66, 66, 66, 1, 1, 1, 1, 1, 1, 1, 1, 1, 1, 66, 66, 1, 1, 1, 1, 1, 1, 1, 1, 66, 1, 1, 1, 1, 1, 1, 1, 1, 1, 1, 1, 1, 1, 1, 1, 66, 66, 66, 66, 66, 1, 1, 1, 1, 1, 1, 1, 1, 1, 66, 1, 66, 66, 1, 1, 1, 1, 1, 1, 1, 1, 1, 1, 1, 1, 1, 1, 1, 1, 1, 1, 1, 1, 1, 1, 1, 1, 1, 1, 66, 66, 66, 1, 1, 1, 1, 1, 1, 1, 1, 1, 1, 1, 1, 1, 1, 1, 1, 1, 1, 1, 1, 1, 1, 1, 1, 1, 1, 1, 1, 1, 1, 1, 1, 1, 1, 66, 66, 1, 1, 1, 66, 66, 66, 1, 1, 1, 1, 1, 1, 1, 1, 66, 66, 1, 1, 1, 1, 1, 1, 1, 1, 66, 66, 66, 66, 66, 66, 1, 1, 1, 1, 1, 1, 1, 1, 1, 66, 66, 66, 66, 1, 1, 1, 1, 1, 1, 1, 1, 1, 1, 1, 1, 1, 66, 66, 66, 66, 66, 1, 1, 1, 1, 1, 1, 1, 1, 1, 1, 1, 1, 1, 1, 1, 1, 1, 1, 1, 1, 1, 66, 1, 1, 1, 1, 1, 1, 1, 1, 1, 1, 1, 1, 1, 1, 1, 1, 1, 1, 1, 1, 1, 1, 1, 1, 1, 1, 1, 1, 1, 1, 1, 1, 1, 1, 1, 66, 66, 66, 66, 1, 1, 66, 66, 66, 1, 1, 1, 1, 1, 1, 1, 1, 66, 66, 66, 66, 66, 66, 66, 66, 66, 66, 1, 1, 1, 1, 1, 1, 1, 1, 1, 1, 1, 1, 66, 66, 66, 66, 1, 1, 66, 66, 1, 1, 1, 1, 1, 1, 1, 1, 1, 1, 1, 1, 1, 1, 1, 1, 1, 1, 1, 1, 1, 1, 1, 1, 1, 1, 1, 1, 1, 1, 1, 1, 66, 66, 66, 1, 66, 66, 66, 66, 1, 1, 1, 1, 1, 1, 1, 1, 1, 1, 1, 1, 1, 1, 1, 1, 1, 1, 1, 1, 1, 1, 1, 1, 1, 1, 1, 1, 1, 1, 1, 1, 1, 197, 197, 197, 197, 197, 197, 197, 197, 197, 197, 197, 197, 197, 197, 197, 197, 197, 197, 197, 197, 197, 197, 197, 197, 197, 197, 197, 197, 197, 197, 197, 197, 197, 197, 197, 197, 197, 197, 1, 1, 195, 194, 195, 194, 195, 194, 195, 194, 195, 194, 195, 194, 195, 194, 195, 194, 195, 194, 195, 194, 195, 194, 195, 194, 195, 194, 195, 194, 195, 194, 195, 194, 195, 194, 195, 194, 195, 194, 1, 1, 194, 195, 194, 195, 194, 195, 194, 195, 194, 195, 194, 195, 194, 195, 194, 195, 194, 195, 194, 195, 194, 195, 194, 195, 194, 195, 194, 195, 194, 195, 194, 195, 194, 195, 194, 195, 194, 195, 1, 1, 1, 1, 1, 1, 1, 1, 1, 1, 1, 1, 1, 1, 1, 1, 1, 1, 1, 1, 1, 1, 1, 1, 1, 1, 1, 1, 1, 1, 1, 1, 1, 1, 1, 1, 1, 1, 1, 1, 1],
         "height":28,
         "id":1,
         "name":"Tile Layer 1",
         "opacity":1,
         "type":"tilelayer",
         "visible":true,
         "width":40,
         "x":0,
         "y":0
        }],
 "nextlayerid":2,
 "nextobjectid":1,
 "orientation":"orthogonal",
 "renderorder":"right-down",
 "tiledversion":"1.4.3",
 "tileheight":8,
 "tilesets":[
        {
         "firstgid":1,
         "source":"vga.tsx"
        }],
 "tilewidth":8,
 "type":"map",
 "version":1.4,
 "width":40
}